EESchema Schematic File Version 2
LIBS:74xgxx
LIBS:74xx
LIBS:ac-dc
LIBS:actel
LIBS:adc-dac
LIBS:allegro
LIBS:Altera
LIBS:analog_devices
LIBS:analog_switches
LIBS:atmel
LIBS:audio
LIBS:battery_management
LIBS:bbd
LIBS:bosch
LIBS:brooktre
LIBS:cmos_ieee
LIBS:cmos4000
LIBS:conn
LIBS:contrib
LIBS:cypress
LIBS:dc-dc
LIBS:device
LIBS:digital-audio
LIBS:diode
LIBS:display
LIBS:dsp
LIBS:elec-unifil
LIBS:ESD_Protection
LIBS:ftdi
LIBS:gennum
LIBS:graphic_symbols
LIBS:hc11
LIBS:infineon
LIBS:intel
LIBS:interface
LIBS:intersil
LIBS:ir
LIBS:Lattice
LIBS:leds
LIBS:LEM
LIBS:linear
LIBS:logic_programmable
LIBS:maxim
LIBS:mechanical
LIBS:memory
LIBS:microchip
LIBS:microchip_dspic33dsc
LIBS:microchip_pic10mcu
LIBS:microchip_pic12mcu
LIBS:microchip_pic16mcu
LIBS:microchip_pic18mcu
LIBS:microchip_pic24mcu
LIBS:microchip_pic32mcu
LIBS:microcontrollers
LIBS:modules
LIBS:motor_drivers
LIBS:motorola
LIBS:motors
LIBS:msp430
LIBS:nordicsemi
LIBS:nxp
LIBS:nxp_armmcu
LIBS:onsemi
LIBS:opto
LIBS:Oscillators
LIBS:philips
LIBS:power
LIBS:Power_Management
LIBS:powerint
LIBS:pspice
LIBS:references
LIBS:regul
LIBS:relays
LIBS:rfcom
LIBS:RFSolutions
LIBS:sensors
LIBS:silabs
LIBS:siliconi
LIBS:stm8
LIBS:stm32
LIBS:supertex
LIBS:switches
LIBS:texas
LIBS:transf
LIBS:transistors
LIBS:triac_thyristor
LIBS:ttl_ieee
LIBS:valves
LIBS:video
LIBS:wiznet
LIBS:Worldsemi
LIBS:Xicor
LIBS:xilinx
LIBS:zetex
LIBS:Zilog
LIBS:PCB-cache
EELAYER 25 0
EELAYER END
$Descr A4 11693 8268
encoding utf-8
Sheet 1 3
Title ""
Date ""
Rev ""
Comp ""
Comment1 ""
Comment2 ""
Comment3 ""
Comment4 ""
$EndDescr
Text Label 8700 1100 0    60   ~ 0
1(Tx)
Text Label 8700 1200 0    60   ~ 0
0(Rx)
Text Label 8700 1300 0    60   ~ 0
Reset
Text Label 8700 1500 0    60   ~ 0
2
Text Label 8700 1600 0    60   ~ 0
3(**)
Text Label 8700 1700 0    60   ~ 0
4
Text Label 8700 1800 0    60   ~ 0
5(**)
Text Label 8700 1900 0    60   ~ 0
6(**)
Text Label 8700 2000 0    60   ~ 0
7
Text Label 8700 2100 0    60   ~ 0
8
Text Label 8700 2200 0    60   ~ 0
9(**)
Text Label 8700 2300 0    60   ~ 0
10(**/SS)
Text Label 8700 2400 0    60   ~ 0
11(**/MOSI)
Text Label 8700 2500 0    60   ~ 0
12(MISO)
Text Label 10550 2500 0    60   ~ 0
13(SCK)
Text Label 10550 2200 0    60   ~ 0
A0
Text Label 10550 2100 0    60   ~ 0
A1
Text Label 10550 2000 0    60   ~ 0
A2
Text Label 10550 1900 0    60   ~ 0
A3
Text Label 10550 1600 0    60   ~ 0
A6
Text Label 10550 1500 0    60   ~ 0
A7
Text Label 10550 2300 0    60   ~ 0
AREF
Text Label 10550 1300 0    60   ~ 0
Reset
Text Notes 10800 1000 0    60   ~ 0
Holes
Text Notes 8500 575  0    60   ~ 0
Shield for Arduino Nano
Text Label 10250 950  1    60   ~ 0
Vin
Wire Notes Line
	8475 650  9675 650 
Wire Notes Line
	9675 650  9675 475 
$Comp
L CONN_01X01 P3
U 1 1 56D73ADD
P 10800 650
F 0 "P3" V 10900 650 50  0000 C CNN
F 1 "CONN_01X01" V 10900 650 50  0001 C CNN
F 2 "Socket_Arduino_Nano:1pin_Nano" H 10800 650 50  0001 C CNN
F 3 "" H 10800 650 50  0000 C CNN
	1    10800 650 
	0    -1   -1   0   
$EndComp
NoConn ~ 10800 850 
$Comp
L CONN_01X01 P4
U 1 1 56D73D86
P 10900 650
F 0 "P4" V 11000 650 50  0000 C CNN
F 1 "CONN_01X01" V 11000 650 50  0001 C CNN
F 2 "Socket_Arduino_Nano:1pin_Nano" H 10900 650 50  0001 C CNN
F 3 "" H 10900 650 50  0000 C CNN
	1    10900 650 
	0    -1   -1   0   
$EndComp
$Comp
L CONN_01X01 P5
U 1 1 56D73DAE
P 11000 650
F 0 "P5" V 11100 650 50  0000 C CNN
F 1 "CONN_01X01" V 11100 650 50  0001 C CNN
F 2 "Socket_Arduino_Nano:1pin_Nano" H 11000 650 50  0001 C CNN
F 3 "" H 11000 650 50  0000 C CNN
	1    11000 650 
	0    -1   -1   0   
$EndComp
$Comp
L CONN_01X01 P6
U 1 1 56D73DD9
P 11100 650
F 0 "P6" V 11200 650 50  0000 C CNN
F 1 "CONN_01X01" V 11200 650 50  0001 C CNN
F 2 "Socket_Arduino_Nano:1pin_Nano" H 11100 650 50  0001 C CNN
F 3 "" H 11100 650 50  0000 C CNN
	1    11100 650 
	0    -1   -1   0   
$EndComp
NoConn ~ 10900 850 
NoConn ~ 11000 850 
NoConn ~ 11100 850 
$Comp
L CONN_01X15 P1
U 1 1 56D73FAC
P 9550 1800
F 0 "P1" H 9550 2600 50  0000 C CNN
F 1 "Digital" V 9650 1800 50  0000 C CNN
F 2 "Socket_Arduino_Nano:Socket_Strip_Arduino_1x15" H 9550 1800 50  0001 C CNN
F 3 "" H 9550 1800 50  0000 C CNN
	1    9550 1800
	1    0    0    -1  
$EndComp
$Comp
L CONN_01X15 P2
U 1 1 56D740C7
P 9950 1800
F 0 "P2" H 9950 2600 50  0000 C CNN
F 1 "Analog" V 10050 1800 50  0000 C CNN
F 2 "Socket_Arduino_Nano:Socket_Strip_Arduino_1x15" H 9950 1800 50  0001 C CNN
F 3 "" H 9950 1800 50  0000 C CNN
	1    9950 1800
	-1   0    0    -1  
$EndComp
$Comp
L GND #PWR01
U 1 1 56D7422C
P 9250 2600
F 0 "#PWR01" H 9250 2350 50  0001 C CNN
F 1 "GND" H 9250 2450 50  0000 C CNN
F 2 "" H 9250 2600 50  0000 C CNN
F 3 "" H 9250 2600 50  0000 C CNN
	1    9250 2600
	1    0    0    -1  
$EndComp
Wire Wire Line
	9350 1400 9250 1400
Wire Wire Line
	9250 1400 9250 2600
Wire Wire Line
	9350 1100 8700 1100
Wire Wire Line
	8700 1200 9350 1200
Wire Wire Line
	9350 1300 8700 1300
Wire Wire Line
	8700 1500 9350 1500
Wire Wire Line
	9350 1600 8700 1600
Wire Wire Line
	8700 1700 9350 1700
Wire Wire Line
	9350 1800 8700 1800
Wire Wire Line
	8700 1900 9350 1900
Wire Wire Line
	9350 2000 8700 2000
Wire Wire Line
	8700 2100 9350 2100
Wire Wire Line
	9350 2200 8700 2200
Wire Wire Line
	8700 2300 9350 2300
Wire Wire Line
	9350 2400 8700 2400
Wire Wire Line
	8700 2500 9350 2500
$Comp
L GND #PWR02
U 1 1 56D746ED
P 10250 2600
F 0 "#PWR02" H 10250 2350 50  0001 C CNN
F 1 "GND" H 10250 2450 50  0000 C CNN
F 2 "" H 10250 2600 50  0000 C CNN
F 3 "" H 10250 2600 50  0000 C CNN
	1    10250 2600
	1    0    0    -1  
$EndComp
Wire Wire Line
	10250 2600 10250 1200
Wire Wire Line
	10250 1200 10150 1200
Wire Wire Line
	10150 1100 10250 1100
Wire Wire Line
	10250 1100 10250 950 
$Comp
L +5V #PWR03
U 1 1 56D747E8
P 10350 950
F 0 "#PWR03" H 10350 800 50  0001 C CNN
F 1 "+5V" H 10350 1090 28  0000 C CNN
F 2 "" H 10350 950 50  0000 C CNN
F 3 "" H 10350 950 50  0000 C CNN
	1    10350 950 
	1    0    0    -1  
$EndComp
Wire Wire Line
	10350 950  10350 1400
Wire Wire Line
	10350 1400 10150 1400
$Comp
L +3.3V #PWR04
U 1 1 56D74854
P 10450 950
F 0 "#PWR04" H 10450 800 50  0001 C CNN
F 1 "+3.3V" H 10450 1090 28  0000 C CNN
F 2 "" H 10450 950 50  0000 C CNN
F 3 "" H 10450 950 50  0000 C CNN
	1    10450 950 
	1    0    0    -1  
$EndComp
Wire Wire Line
	10450 950  10450 2400
Wire Wire Line
	10450 2400 10150 2400
Wire Wire Line
	10550 1300 10150 1300
Wire Wire Line
	10150 1500 10550 1500
Wire Wire Line
	10550 1600 10150 1600
Wire Wire Line
	10550 1700 10150 1700
Wire Wire Line
	10150 1800 10550 1800
Wire Wire Line
	10550 1900 10150 1900
Wire Wire Line
	10550 2000 10150 2000
Wire Wire Line
	10150 2100 10550 2100
Wire Wire Line
	10550 2200 10150 2200
Wire Wire Line
	10550 2300 10150 2300
Wire Wire Line
	10150 2500 10550 2500
Wire Notes Line
	11200 1050 10650 1050
Wire Notes Line
	10650 1050 10650 500 
Wire Notes Line
	11200 2850 8450 2850
Wire Notes Line
	8450 2850 8450 500 
Text Notes 9650 1100 0    60   ~ 0
1
$Comp
L Conn_01x04 J?
U 1 1 5B25D470
P 2150 1250
F 0 "J?" H 2150 1450 50  0000 C CNN
F 1 "SCREEN2" H 2150 950 50  0000 C CNN
F 2 "" H 2150 1250 50  0001 C CNN
F 3 "" H 2150 1250 50  0001 C CNN
	1    2150 1250
	1    0    0    -1  
$EndComp
$Comp
L Conn_01x04 J?
U 1 1 5B25D4D4
P 2150 1850
F 0 "J?" H 2150 2050 50  0000 C CNN
F 1 "SCREEN1" H 2150 1550 50  0000 C CNN
F 2 "" H 2150 1850 50  0001 C CNN
F 3 "" H 2150 1850 50  0001 C CNN
	1    2150 1850
	1    0    0    -1  
$EndComp
$Comp
L Conn_01x04 J?
U 1 1 5B25DA49
P 1700 6450
F 0 "J?" H 1700 6650 50  0000 C CNN
F 1 "HX711" H 1700 6150 50  0000 C CNN
F 2 "" H 1700 6450 50  0001 C CNN
F 3 "" H 1700 6450 50  0001 C CNN
	1    1700 6450
	1    0    0    -1  
$EndComp
$Comp
L Micro_SD_Card J?
U 1 1 5B25E5C7
P 10400 3550
F 0 "J?" H 9750 4150 50  0000 C CNN
F 1 "Micro_SD_Card" H 11050 4150 50  0000 R CNN
F 2 "" H 11550 3850 50  0001 C CNN
F 3 "" H 10400 3550 50  0001 C CNN
	1    10400 3550
	1    0    0    -1  
$EndComp
Wire Wire Line
	1950 1150 1450 1150
Wire Wire Line
	1950 1250 1450 1250
Wire Wire Line
	1950 1350 1450 1350
Wire Wire Line
	1950 1750 1450 1750
Wire Wire Line
	1950 1850 1450 1850
Wire Wire Line
	1950 1950 1450 1950
Wire Wire Line
	1250 2050 1950 2050
Text Label 10550 1800 0    60   ~ 0
SDA
Text Label 10550 1700 0    60   ~ 0
SCL
Text Label 1450 1150 0    60   ~ 0
SDA
Text Label 1450 1250 0    60   ~ 0
SCL
Text Label 1450 1850 0    60   ~ 0
SCL
Text Label 1450 1750 0    60   ~ 0
SDA
$Comp
L GND #PWR?
U 1 1 5B25EEB1
P 1450 1350
F 0 "#PWR?" H 1450 1100 50  0001 C CNN
F 1 "GND" H 1450 1200 50  0000 C CNN
F 2 "" H 1450 1350 50  0001 C CNN
F 3 "" H 1450 1350 50  0001 C CNN
	1    1450 1350
	0    1    1    0   
$EndComp
Wire Wire Line
	1250 1450 1950 1450
$Comp
L +5V #PWR?
U 1 1 5B25EF88
P 1250 1450
F 0 "#PWR?" H 1250 1300 50  0001 C CNN
F 1 "+5V" H 1250 1590 50  0000 C CNN
F 2 "" H 1250 1450 50  0001 C CNN
F 3 "" H 1250 1450 50  0001 C CNN
	1    1250 1450
	0    -1   -1   0   
$EndComp
$Comp
L GND #PWR?
U 1 1 5B25EFE0
P 1250 2050
F 0 "#PWR?" H 1250 1800 50  0001 C CNN
F 1 "GND" H 1250 1900 50  0000 C CNN
F 2 "" H 1250 2050 50  0001 C CNN
F 3 "" H 1250 2050 50  0001 C CNN
	1    1250 2050
	0    1    1    0   
$EndComp
$Comp
L +5V #PWR?
U 1 1 5B25F047
P 1450 1950
F 0 "#PWR?" H 1450 1800 50  0001 C CNN
F 1 "+5V" H 1450 2090 50  0000 C CNN
F 2 "" H 1450 1950 50  0001 C CNN
F 3 "" H 1450 1950 50  0001 C CNN
	1    1450 1950
	0    -1   -1   0   
$EndComp
$Comp
L TXB0104D U?
U 1 1 5B25F0B8
P 9200 5200
F 0 "U?" H 8925 5855 50  0000 C CNN
F 1 "TXB0104D" H 9550 5850 50  0000 C CNN
F 2 "Housings_SOIC:SOIC-14_3.9x8.7mm_Pitch1.27mm" H 9250 4350 50  0001 C CNN
F 3 "" H 9310 5295 50  0001 C CNN
	1    9200 5200
	1    0    0    -1  
$EndComp
Wire Wire Line
	9100 4500 9100 4250
Wire Wire Line
	9300 4500 9300 4250
$Comp
L +5V #PWR?
U 1 1 5B25F1C2
P 9300 4250
F 0 "#PWR?" H 9300 4100 50  0001 C CNN
F 1 "+5V" H 9300 4390 50  0000 C CNN
F 2 "" H 9300 4250 50  0001 C CNN
F 3 "" H 9300 4250 50  0001 C CNN
	1    9300 4250
	1    0    0    -1  
$EndComp
$Comp
L +3.3V #PWR?
U 1 1 5B25F1EC
P 9100 4250
F 0 "#PWR?" H 9100 4100 50  0001 C CNN
F 1 "+3.3V" H 9100 4390 50  0000 C CNN
F 2 "" H 9100 4250 50  0001 C CNN
F 3 "" H 9100 4250 50  0001 C CNN
	1    9100 4250
	1    0    0    -1  
$EndComp
$Comp
L GND #PWR?
U 1 1 5B25F216
P 9200 5900
F 0 "#PWR?" H 9200 5650 50  0001 C CNN
F 1 "GND" H 9200 5750 50  0000 C CNN
F 2 "" H 9200 5900 50  0001 C CNN
F 3 "" H 9200 5900 50  0001 C CNN
	1    9200 5900
	1    0    0    -1  
$EndComp
Wire Wire Line
	9600 4900 9950 4900
Wire Wire Line
	9600 5100 9950 5100
Wire Wire Line
	9600 5300 9950 5300
Wire Wire Line
	9600 5500 9950 5500
Text Label 9950 4900 0    60   ~ 0
10(**/SS)
Text Label 9950 5100 0    60   ~ 0
11(**/MOSI)
Text Label 9950 5300 0    60   ~ 0
12(MISO)
Text Label 9950 5500 0    60   ~ 0
13(SCK)
Wire Wire Line
	11250 4300 11250 4150
Wire Wire Line
	11250 4150 11200 4150
$Comp
L GND #PWR?
U 1 1 5B25F706
P 11250 4300
F 0 "#PWR?" H 11250 4050 50  0001 C CNN
F 1 "GND" H 11250 4150 50  0000 C CNN
F 2 "" H 11250 4300 50  0001 C CNN
F 3 "" H 11250 4300 50  0001 C CNN
	1    11250 4300
	1    0    0    -1  
$EndComp
Wire Wire Line
	9500 3350 9100 3350
Wire Wire Line
	8800 4900 8250 4900
Wire Wire Line
	8250 5100 8800 5100
Wire Wire Line
	8800 5300 8250 5300
Wire Wire Line
	8800 5500 8250 5500
Text Label 8250 4900 0    60   ~ 0
SS_LV
Text Label 8250 5100 0    60   ~ 0
MOSI_LV
Text Label 8250 5300 0    60   ~ 0
MISO_LV
Text Label 8250 5500 0    60   ~ 0
SCK_LV
Wire Wire Line
	9500 3450 9100 3450
Wire Wire Line
	9100 3550 9500 3550
Wire Wire Line
	9500 3650 9100 3650
Text Label 9100 3650 0    60   ~ 0
SCK_LV
Wire Wire Line
	9500 3750 9100 3750
Wire Wire Line
	9500 3850 9100 3850
Wire Wire Line
	8800 3950 9500 3950
Wire Wire Line
	8800 3250 9500 3250
Text Label 9100 3350 0    60   ~ 0
SS_LV
Text Label 9100 3450 0    60   ~ 0
MOSI_LV
$Comp
L +3.3V #PWR?
U 1 1 5B25FD24
P 9100 3550
F 0 "#PWR?" H 9100 3400 50  0001 C CNN
F 1 "+3.3V" H 9100 3690 50  0000 C CNN
F 2 "" H 9100 3550 50  0001 C CNN
F 3 "" H 9100 3550 50  0001 C CNN
	1    9100 3550
	0    -1   -1   0   
$EndComp
$Comp
L GND #PWR?
U 1 1 5B25FD59
P 9100 3750
F 0 "#PWR?" H 9100 3500 50  0001 C CNN
F 1 "GND" H 9100 3600 50  0000 C CNN
F 2 "" H 9100 3750 50  0001 C CNN
F 3 "" H 9100 3750 50  0001 C CNN
	1    9100 3750
	0    1    1    0   
$EndComp
Text Label 9100 3850 0    60   ~ 0
MISO_LV
$Comp
L R R?
U 1 1 5B25FEAA
P 8650 3950
F 0 "R?" V 8730 3950 50  0000 C CNN
F 1 "R" V 8650 3950 50  0000 C CNN
F 2 "" V 8580 3950 50  0001 C CNN
F 3 "" H 8650 3950 50  0001 C CNN
	1    8650 3950
	0    1    1    0   
$EndComp
$Comp
L R R?
U 1 1 5B25FEED
P 8650 3250
F 0 "R?" V 8730 3250 50  0000 C CNN
F 1 "R" V 8650 3250 50  0000 C CNN
F 2 "" V 8580 3250 50  0001 C CNN
F 3 "" H 8650 3250 50  0001 C CNN
	1    8650 3250
	0    1    1    0   
$EndComp
$Comp
L +3.3V #PWR?
U 1 1 5B25FF7D
P 8500 3250
F 0 "#PWR?" H 8500 3100 50  0001 C CNN
F 1 "+3.3V" H 8500 3390 50  0000 C CNN
F 2 "" H 8500 3250 50  0001 C CNN
F 3 "" H 8500 3250 50  0001 C CNN
	1    8500 3250
	0    -1   -1   0   
$EndComp
$Comp
L +3.3V #PWR?
U 1 1 5B25FFAF
P 8500 3950
F 0 "#PWR?" H 8500 3800 50  0001 C CNN
F 1 "+3.3V" H 8500 4090 50  0000 C CNN
F 2 "" H 8500 3950 50  0001 C CNN
F 3 "" H 8500 3950 50  0001 C CNN
	1    8500 3950
	0    -1   -1   0   
$EndComp
$Comp
L Rotary_Encoder_Switch SW?
U 1 1 5B2604E7
P 1800 3250
F 0 "SW?" H 1800 3510 50  0000 C CNN
F 1 "Rotary_Encoder_Switch" H 1800 2990 50  0000 C CNN
F 2 "" H 1700 3410 50  0001 C CNN
F 3 "" H 1800 3510 50  0001 C CNN
	1    1800 3250
	1    0    0    -1  
$EndComp
Wire Wire Line
	1500 3250 1050 3250
$Comp
L GND #PWR?
U 1 1 5B2605EA
P 1050 3250
F 0 "#PWR?" H 1050 3000 50  0001 C CNN
F 1 "GND" H 1050 3100 50  0000 C CNN
F 2 "" H 1050 3250 50  0001 C CNN
F 3 "" H 1050 3250 50  0001 C CNN
	1    1050 3250
	0    1    1    0   
$EndComp
$Comp
L R R?
U 1 1 5B26073E
P 1050 3350
F 0 "R?" V 1130 3350 50  0000 C CNN
F 1 "R" V 1050 3350 50  0000 C CNN
F 2 "" V 980 3350 50  0001 C CNN
F 3 "" H 1050 3350 50  0001 C CNN
	1    1050 3350
	0    1    1    0   
$EndComp
$Comp
L R R?
U 1 1 5B260806
P 1050 3150
F 0 "R?" V 1130 3150 50  0000 C CNN
F 1 "R" V 1050 3150 50  0000 C CNN
F 2 "" V 980 3150 50  0001 C CNN
F 3 "" H 1050 3150 50  0001 C CNN
	1    1050 3150
	0    1    1    0   
$EndComp
Wire Wire Line
	1200 3150 1500 3150
Wire Wire Line
	1500 3350 1200 3350
$Comp
L +5V #PWR?
U 1 1 5B2608F9
P 800 3000
F 0 "#PWR?" H 800 2850 50  0001 C CNN
F 1 "+5V" H 800 3140 50  0000 C CNN
F 2 "" H 800 3000 50  0001 C CNN
F 3 "" H 800 3000 50  0001 C CNN
	1    800  3000
	1    0    0    -1  
$EndComp
Wire Wire Line
	900  3350 800  3350
Wire Wire Line
	800  3350 800  3000
Wire Wire Line
	900  3150 800  3150
Connection ~ 800  3150
Text Label 1300 3150 0    60   ~ 0
2
Text Label 1300 3350 0    60   ~ 0
3(**)
Wire Wire Line
	2100 3150 2300 3150
Wire Wire Line
	2100 3350 2650 3350
Text Label 2350 3350 0    60   ~ 0
4
$Comp
L R R?
U 1 1 5B260F1D
P 2450 3150
F 0 "R?" V 2530 3150 50  0000 C CNN
F 1 "R" V 2450 3150 50  0000 C CNN
F 2 "" V 2380 3150 50  0001 C CNN
F 3 "" H 2450 3150 50  0001 C CNN
	1    2450 3150
	0    1    1    0   
$EndComp
$Comp
L +5V #PWR?
U 1 1 5B260F7A
P 2600 3150
F 0 "#PWR?" H 2600 3000 50  0001 C CNN
F 1 "+5V" H 2600 3290 50  0000 C CNN
F 2 "" H 2600 3150 50  0001 C CNN
F 3 "" H 2600 3150 50  0001 C CNN
	1    2600 3150
	0    1    1    0   
$EndComp
$Comp
L Buzzer BZ?
U 1 1 5B2610E0
P 10700 5700
F 0 "BZ?" H 10850 5750 50  0000 L CNN
F 1 "Buzzer" H 10850 5650 50  0000 L CNN
F 2 "" V 10675 5800 50  0001 C CNN
F 3 "" V 10675 5800 50  0001 C CNN
	1    10700 5700
	1    0    0    -1  
$EndComp
$Comp
L Q_NPN_BCE Q?
U 1 1 5B26126B
P 10500 6000
F 0 "Q?" H 10700 6050 50  0000 L CNN
F 1 "Q_NPN_BCE" H 10700 5950 50  0000 L CNN
F 2 "" H 10700 6100 50  0001 C CNN
F 3 "" H 10500 6000 50  0001 C CNN
	1    10500 6000
	1    0    0    -1  
$EndComp
$Comp
L GND #PWR?
U 1 1 5B2612CE
P 10600 6200
F 0 "#PWR?" H 10600 5950 50  0001 C CNN
F 1 "GND" H 10600 6050 50  0000 C CNN
F 2 "" H 10600 6200 50  0001 C CNN
F 3 "" H 10600 6200 50  0001 C CNN
	1    10600 6200
	1    0    0    -1  
$EndComp
$Comp
L R R?
U 1 1 5B261308
P 10300 6150
F 0 "R?" V 10380 6150 50  0000 C CNN
F 1 "R" V 10300 6150 50  0000 C CNN
F 2 "" V 10230 6150 50  0001 C CNN
F 3 "" H 10300 6150 50  0001 C CNN
	1    10300 6150
	1    0    0    -1  
$EndComp
$Comp
L R R?
U 1 1 5B26136B
P 10150 6000
F 0 "R?" V 10230 6000 50  0000 C CNN
F 1 "R" V 10150 6000 50  0000 C CNN
F 2 "" V 10080 6000 50  0001 C CNN
F 3 "" H 10150 6000 50  0001 C CNN
	1    10150 6000
	0    1    1    0   
$EndComp
$Comp
L GND #PWR?
U 1 1 5B2613D2
P 10300 6300
F 0 "#PWR?" H 10300 6050 50  0001 C CNN
F 1 "GND" H 10300 6150 50  0000 C CNN
F 2 "" H 10300 6300 50  0001 C CNN
F 3 "" H 10300 6300 50  0001 C CNN
	1    10300 6300
	1    0    0    -1  
$EndComp
Text Label 10000 6000 2    60   ~ 0
6(**)
$Comp
L +5V #PWR?
U 1 1 5B2616D9
P 10600 5600
F 0 "#PWR?" H 10600 5450 50  0001 C CNN
F 1 "+5V" H 10600 5740 50  0000 C CNN
F 2 "" H 10600 5600 50  0001 C CNN
F 3 "" H 10600 5600 50  0001 C CNN
	1    10600 5600
	0    -1   -1   0   
$EndComp
$Sheet
S 3750 6450 1550 1200
U 5B262E31
F0 "Arduino2" 60
F1 "Arduino2.sch" 60
F2 "A1Tx" I L 3750 6550 60 
F3 "A1Rx" I L 3750 6650 60 
F4 "Batt+VE" I R 5300 6550 60 
F5 "Batt-VE" I R 5300 6650 60 
$EndSheet
$Sheet
S 5700 6450 1000 1200
U 5B2640AA
F0 "Sheet5B2640A9" 60
F1 "battery.sch" 60
F2 "BATT+VE" I L 5700 6550 60 
$EndSheet
$EndSCHEMATC
